ProcessadorRiscVMonociclo/simulation/qsim/processadorEnzoVini.msim.vcd
$comment
	File created using the following command:
		vcd file processadorEnzoVini.msim.vcd -direction
$end
$date
	Sat Aug 31 08:49:22 2024
$end
$version
	ModelSim Version 10.1d
$end
$timescale
	1ps
$end
$scope module flopr_vlg_vec_tst $end
$var reg 1 ! clk $end
$var reg 8 " d [7:0] $end
$var reg 1 # reset $end
$var wire 1 $ q [7] $end
$var wire 1 % q [6] $end
$var wire 1 & q [5] $end
$var wire 1 ' q [4] $end
$var wire 1 ( q [3] $end
$var wire 1 ) q [2] $end
$var wire 1 * q [1] $end
$var wire 1 + q [0] $end
$var wire 1 , sampler $end
$scope module i1 $end
$var wire 1 - gnd $end
$var wire 1 . vcc $end
$var wire 1 / unknown $end
$var tri1 1 0 devclrn $end
$var tri1 1 1 devpor $end
$var tri1 1 2 devoe $end
$var wire 1 3 q[0]~output_o $end
$var wire 1 4 q[1]~output_o $end
$var wire 1 5 q[2]~output_o $end
$var wire 1 6 q[3]~output_o $end
$var wire 1 7 q[4]~output_o $end
$var wire 1 8 q[5]~output_o $end
$var wire 1 9 q[6]~output_o $end
$var wire 1 : q[7]~output_o $end
$var wire 1 ; clk~input_o $end
$var wire 1 < clk~inputclkctrl_outclk $end
$var wire 1 = d[0]~input_o $end
$var wire 1 > q[0]~reg0feeder_combout $end
$var wire 1 ? reset~input_o $end
$var wire 1 @ reset~inputclkctrl_outclk $end
$var wire 1 A q[0]~reg0_q $end
$var wire 1 B d[1]~input_o $end
$var wire 1 C q[1]~reg0feeder_combout $end
$var wire 1 D q[1]~reg0_q $end
$var wire 1 E d[2]~input_o $end
$var wire 1 F q[2]~reg0feeder_combout $end
$var wire 1 G q[2]~reg0_q $end
$var wire 1 H d[3]~input_o $end
$var wire 1 I q[3]~reg0_q $end
$var wire 1 J d[4]~input_o $end
$var wire 1 K q[4]~reg0feeder_combout $end
$var wire 1 L q[4]~reg0_q $end
$var wire 1 M d[5]~input_o $end
$var wire 1 N q[5]~reg0feeder_combout $end
$var wire 1 O q[5]~reg0_q $end
$var wire 1 P d[6]~input_o $end
$var wire 1 Q q[6]~reg0_q $end
$var wire 1 R d[7]~input_o $end
$var wire 1 S q[7]~reg0feeder_combout $end
$var wire 1 T q[7]~reg0_q $end
$upscope $end
$upscope $end
$enddefinitions $end
#0
$dumpvars
0!
b10 "
0#
0+
0*
0)
0(
0'
0&
0%
0$
x,
0-
1.
x/
10
11
12
03
04
05
06
07
08
09
0:
0;
0<
0=
0>
0?
0@
0A
1B
1C
0D
0E
0F
0G
0H
0I
0J
0K
0L
0M
0N
0O
0P
0Q
0R
0S
0T
$end
#20000
1!
1;
1<
0,
1D
14
1*
#40000
0!
0;
0<
1,
#60000
b0 "
1!
0B
1;
1<
0,
0C
#80000
0!
0;
0<
1,
#100000
1!
1;
1<
0,
0D
04
0*
#120000
b100 "
0!
1E
0;
0<
1,
1F
#140000
1!
1;
1<
0,
1G
15
1)
#160000
0!
0;
0<
1,
#180000
1!
1;
1<
0,
#200000
0!
0;
0<
1,
#220000
1!
1;
1<
0,
#240000
1#
0!
1?
0;
1@
0<
1,
0G
05
0)
#260000
1!
1;
1<
0,
#280000
0!
0;
0<
1,
#300000
1!
1;
1<
0,
#320000
0!
0;
0<
1,
#340000
1!
1;
1<
0,
#360000
0#
0!
0?
0;
0@
0<
1,
#380000
1!
1;
1<
0,
1G
15
1)
#400000
0!
0;
0<
1,
#420000
1!
1;
1<
0,
#440000
0!
0;
0<
1,
#460000
1!
1;
1<
0,
#480000
0!
0;
0<
1,
#500000
1!
1;
1<
0,
#520000
0!
0;
0<
1,
#540000
1!
1;
1<
0,
#560000
0!
0;
0<
1,
#580000
b0 "
1!
0E
1;
1<
0,
0F
#600000
0!
0;
0<
1,
#620000
1!
1;
1<
0,
0G
05
0)
#640000
0!
0;
0<
1,
